p	0.9999linear	0.99999linear	0.9999999linear	0.999linear
5	108.6227801		108.8795583		108.9090811		106.7391802
10	346.7504815		345.1807251		345.2054695		365.2521192
15	708.9186894		625.6495566		613.6610804		696.1335951
20	1323.691882		1099.392048		1037.637242		939.2182002
25	1965.974851		1742.342398		1504.479039		1107.537438
30	2510.78093		2677.801681		2125.024783		1239.888413
35	2931.083692		3799.235142		2801.782491		1349.690166
40	3271.71812		5018.816227		3637.643022		1444.317649
45	3556.436273		6168.904787		4550.677122		1527.49025
50	3804.833303		7209.296177		5640.517044		1601.883919
55	4024.964064		8106.356376		6841.841712		1669.175167
60	4224.091981		8888.727176		8253.220642		1730.676245
65	4405.487756		9570.029975		9824.767288		1787.304774
70	4572.742563		10177.86434		11650.85236		1839.809068
75	4727.602243		10724.00629		13689.60183		1888.750054
80	4872.165932		11224.15297		16021.25279		1934.597259
85	5007.513162		11684.37315		18598.21017		1977.719826
90	5134.986193		12113.27347		21474.8504		2018.432692
95	5255.313433		12513.87156		24585.7327		2056.992142
100	5369.405508		12891.36252		27955.42621		2093.620125