p	0.0001		0.01		0.25		0.5			0.75		0.99		0.9999		0.99999		Envelope	lower		0.999999
5	10.90532146	10.90345732	10.85402509	10.80229401	10.86501076	19.16627388	26.35218829	26.57580776	46.98970004	4.88559067	26.60198098
10	18.30276398	18.30070908	18.230679	18.08004172	17.70935361	24.15188225	41.96184065	43.03693247	60			10			43.23411326
15	24.43407378	24.42876175	24.263905	23.96495625	23.33276678	25.9906415	58.23343563	58.00583697	75.28273777	13.8319065	57.97344922
20	29.41440975	29.40639741	29.16250881	28.74074134	27.92056941	28.05514416	74.4582975	70.54645578	92.04119983	16.9267905	69.70318296
25	33.64700203	33.63662879	33.32322087	32.79253671	31.81455842	30.51966529	86.90660846	89.77319654	109.8970004	19.54236268	84.98975723
30	37.34898389	37.33649835	36.96053097	36.33064611	35.21149731	33.21320131	91.53824224	107.653325	128.6272753	21.81887201	95.72149237
35	40.65196794	40.63756613	40.20454747	39.48301644	38.23351531	35.92293062	91.38136893	129.0218495	148.0847631	23.84146126	113.7299939
40	43.64232543	43.62616917	43.14067759	42.33379232	40.96194652	38.5416085	89.32972915	146.0877371	168.1647993	25.66596216	126.8273504
45	46.38010558	46.36233162	45.82826637	44.94144577	43.4536336	41.02683524	86.82850305	158.7830384	188.7891262	27.33111616	148.9945495
50	48.90892803	48.88965389	48.31039248	47.34840861	45.7499936	43.3701021	84.40835023	165.8979823	209.8970004	28.86499076	167.4415064
55	51.26158627	51.24091401	50.61941225	49.58651851	47.88215508	45.57594525	82.21095487	168.8555303	231.4398958	30.28862291	191.3602209
60	53.46342585	53.44144492	52.78031172	51.68033381	49.87415971	47.65439513	80.32910385	168.9805464	253.37815	31.61821869	212.4329586
65	55.53448591	55.51127528	54.81282791	53.64922666	51.74497533	49.61654996	78.73379748	167.3643211	275.6787364	32.86654839	234.6980227
70	57.49091362	57.46654344	56.7328522	55.50877391	53.50985504	51.47341107	77.42049308	164.7992625	298.3137256	34.04386777	253.2352638
75	59.34593104	59.32046397	58.55338758	57.27170306	55.18125554	53.23501653	76.34493295	161.7194737	321.2591895	35.15854741	269.5900242
80	61.11051559	61.0840079	60.28522293	58.94856072	56.76949406	54.91044103	75.48746179	158.4636961	344.4943979	36.21751499	282.1620834
85	62.79389101	62.76639349	61.93741847	60.54819215	58.28321625	56.50768035	74.81155661	155.15		368.0012174	37.22657391	291.6743898
90	64.40388936	64.37544801	63.51766387	62.07809585	59.72974572	58.03381873	74.29843687	151.91		391.7636517	38.19063786	298.1816678
95	65.94722298	65.91787969	65.03254672	63.54468845	61.11534316	59.49506992	73.92087422	148.7890597	415.767485	39.11390659	302.2365725
100	67.42969233	67.39948535	66.48775783	64.95350754	62.4454066	60.89692971	73.66376787	145.8167627	440			40			304.2832354