p	0.0001star	0.01star	0.5star		0.99star	0.9999star	0.0001linear	0.01linear	0.5linear	0.99linear	0.9999linear	0.25linear	0.75linear	0.25star	0.75star
5	96162.70608	954.3480852	18.77573923	28.98388409	37.99564807	43.73134623		43.77782477	48.01680986	99.08977533	108.6227801		45.23950575	54.76817852	31.70183072	18.60261704
10	200829.6714	1995.659507	28.28597713	12.54424594	22.11113746	80.04563057		80.1060141	85.90212732	257.4263024	346.7504815		82.03953963	96.40950941	67.90993529	15.4712504
15	242095.8691	2409.111114	38.74912645	13.8444763	22.01178395	107.0521702		107.1163602	113.4210875	349.395966	708.9186894		109.189098	125.431584	85.80876128	23.33389264
20	283997.6362	2830.534948	51.88344217	12.69067757	16.04333006	128.8354112		128.9008298	135.4361629	413.5243661	1323.691882		131.0266002	148.3164894	106.0616752	33.94197855
25	308338.914	3075.872367	60.23042742	14.77978222	15.24395367	147.2349923		147.3005534	153.9439769	463.6637167	1965.974851		149.4423991	167.395194	118.4994143	40.81231985
30	339045.2407	3386.060554	71.63081825	18.55632093	12.80820609	163.2436607		163.3088233	169.9959639	505.1870894	2510.78093		165.4479305	183.8494919	135.0488835	50.27320566
35	355778.919	3555.436224	78.43050873	21.83117	13.26427053	177.4625781		177.5270447	184.2201762	540.7284	2931.083692		179.6527824	198.369751	144.5478524	56.06454008
40	376107.4691	3761.633908	87.40588922	26.46885013	12.26162615	190.2855851		190.3491841	197.024764	571.8711947	3271.71812		192.4552062	211.398667	156.6957045	63.83421017
45	389143.085	3893.949437	93.23366206	29.59109994	12.7709214	201.9858603		202.0484906	208.6911388	599.625805	3556.436273		204.130871	223.2383979	164.5920143	68.86675001
50	406775.2782	4073.183201	101.4063336	33.99613488	12.24340179	212.7612817		212.8228841	219.4222712	624.6936396	3804.833303		214.8791655	234.1053028	175.5849581	75.93409354
55	417285.0893	4180.119541	106.4848569	36.89961237	12.76062815	222.7601472		222.8206887	229.3697399	647.5778032	4024.964064		224.8493391	244.1599846	182.302613	80.3721453
60	430747.8175	4317.335261	113.3834145	41.00737029	12.50674119	232.096693		232.1561573	238.649988	668.6578537	4224.091981		234.1562525	253.5252383	191.2431805	86.46260344
65	439658.3981	4408.167398	117.9259778	43.70501014	13.05830823	240.8609319		240.9193137	247.3545482	688.2266152	4405.487756		242.8903367	262.297192	197.1654464	90.45871827
70	451991.4408	4534.042035	124.3765042	47.53415091	13.15667607	249.1251492		249.1824508	255.556783	706.5161877	4572.742563		251.1241642	270.5526312	205.5427316	96.1369632
75	459654.1535	4612.285966	128.4763402	50.04920484	13.85571274	256.9483399		257.0045684	263.3164615	723.7095739	4727.602243		258.9169289	278.3539233	210.8172305	99.76716755
80	469724.9514	4715.278169	134.134255	53.62959283	14.6129312	264.3793266		264.4344925	270.6829739	739.9489768	4872.165932		266.317593	285.7524728	217.9805003	104.8160955
85	476497.5395	4784.528486	137.8917522	55.9847648	15.53934013	271.4590067		271.5131225	277.6976364	755.3425553	5007.513162		273.3671518	292.7911791	222.7719203	108.1569301
90	485969.6125	4881.492881	143.2636445	59.34621739	16.79207417	278.2220047		278.2750845	284.3953875	769.9743895	5134.986193		280.1002988	299.5062453	229.6018684	112.9359907
95	492000.3179	4943.237492	146.726304	61.56128224	17.80971034	284.6979128		284.7499717	290.806055	783.9130906	5255.313433		286.5466741	305.9285193	233.9790559	116.0277914
100	500046.3313	5025.737669	151.5522676	64.72962107	19.23087954	290.9122355		290.963289	296.9553217	797.2177939	5369.405508		292.731815	312.0845177	239.9968468	120.3648207
