p linear upper lower
5 108.909380666 2.58989659379 0.0237802894292
10 345.206020272 2.33772664201 0.00677197529801
15 613.540417434 2.24078051877 0.00365221337519
20 1037.00668651 2.15564266176 0.00207871626076
25 1501.64715615 2.13080932129 0.00141898135828
30 2116.83618261 2.08912447717 0.000986908904113
35 2780.10372978 2.08190955029 0.00074886038531
40 3590.24503879 2.05758788561 0.000573105140005
45 4453.07192228 2.05604621072 0.000461714126026
50 5460.02687183 2.04024978176 0.000373670282154
55 6522.75379946 2.04076520318 0.000312868654241
60 7727.59736488 2.02972751744 0.000262659585069
65 8990.34375662 2.031002931 0.000225909374099
70 10393.7221784 2.02287038855 0.000194624250468
75 11856.5248472 2.02439185091 0.000170740742081
80 13458.8447126 2.01815481623 0.000149950078133
85 15121.7102041 2.01970788545 0.000133563456659
90 16923.2393835 2.01477280214 0.000119053613583
95 18786.162515 2.01626765856 0.000107327276497