p	1.00E-05	1.00E-07	1.00E-09	1.00E-11	1.00E-13
3	383.189629	400.2554863	402.1027823	402.2890865	402.3077337
4	345.1272915	356.0955932	357.3720251	357.5050408	357.5184066
5	539.5710598	574.5956392	578.2164226	578.5815914	578.6181511
6	525.5644777	590.4769298	598.0774725	598.8512247	598.928735
7	684.2345014	756.1815393	767.1022413	768.2677771	768.3850749
8	654.8904823	718.9649098	725.1328303	725.8183131	725.8877022
9	860.7172694	989.1416906	1001.680268	1003.021631	1003.156794
10	822.3671484	1008.409408	1034.737533	1037.615312	1037.905565
11	1008.284687	1254.548895	1287.898137	1291.977249	1292.392833
12	947.4779546	1226.632026	1244.177316	1246.415062	1246.646321
13	1114.448525	1554.704159	1584.480258	1588.095399	1588.466213
14	1029.279864	1569.054621	1630.11021	1637.997727	1638.807202
15	1155.086562	1890.641525	1957.968005	1968.423546	1969.509114
16	1047.945394	1874.935486	1912.193206	1917.611191	1918.190759
17	1134.492133	2261.466736	2318.663248	2327.023418	2328.028191
18	1016.601434	2269.829908	2375.974078	2393.444201	2395.13519
19	1068.170349	2660.575418	2766.44896	2788.587235	2790.174911
20	949.6690756	2654.763415	2727.412306	2738.586442	2740.689486