i4	p4				i8	p8				i12	p12				i16	p16				i20	p20
1	18.00429573		1	14.88733841		1	13.3259028		1	12.60149162		1	12.19338685
2	3.014679982		2	1.604777192		2	0.7136019073	2	0.3683340299	2	0.2129048528
3	0.4155601144	3	0.05956080046	3	0.02227293112	3	0.01081040489	3	0.006975207181
4	0.4042305785	4	0.05401813412	4	0.03104508056	4	0.01680845318	4	0.01097077983
5	0.3347045157	5	0.03791247165	5	0.02102792953	5	0.01104001956	5	0.006278588379
6	0.1683366675	6	0.01355751158	6	0.00453677131	6	0.00172769508	6	0.0009809557476
7	0.05435173492	7	0.01593231987	7	0.00740131298	7	0.003240618774	7	0.001584929017
8	0.0416600463	8	0.0137445045	8	0.003871314728	8	0.001571611333	8	0.0008959343533
9	0.01614011713	9	0.003019312009	9	0.00103212296	9	0.000582217421	9	0.0003293494128
10	0.006175521426	10	0.002335739298	10	0.0005553022108	10	0.0001804601391	10	8.45E-05
11	0.007068102858	11	0.001107924694	11	0.000336429151	11	7.53E-05		11	4.09E-05
12	0.004701375027	12	0.0002619426018	12	6.93E-05		12	2.68E-05		12	1.47E-05
13	0.003413743166	13	0.0001779110741	13	4.08E-05		13	3.27E-05		13	8.82E-06
14	0.0009540417535	14	0.0002029662351	14	5.22E-05		14	3.09E-05		14	1.03E-05
15	0.0005645413087	15	8.11E-05		15	2.37E-05		15	1.15E-05		15	4.70E-06
16	0.0003109936452	16	4.49E-05		16	1.44E-05		16	6.00E-06		16	3.31E-06
17	0.0001396598864	17	2.03E-05		17	7.63E-06		17	2.94E-06		17	1.33E-06
18	7.57E-05		18	1.42E-05		18	1.66E-06		18	5.92E-07		18	2.80E-07
19	5.44E-05		19	3.06E-06		19	4.96E-07		19	2.54E-07		19	1.09E-07
20	6.73E-05		20	1.79E-06		20	5.46E-07		20	3.32E-07		20	8.64E-08
21	2.36E-05		21	1.40E-06		21	4.64E-07		21	2.39E-07		21	5.79E-08
22	7.51E-06		22	7.74E-07		22	1.92E-07		22	5.69E-08		22	2.60E-08
23	3.81E-06		23	4.66E-07		23	8.51E-08		23	2.47E-08		23	1.19E-08
24	1.60E-06		24	1.61E-07		24	2.42E-08		24	7.61E-09		24	4.19E-09
25	5.49E-07		25	4.78E-08		25	1.24E-08		25	6.87E-09		
26	3.33E-07		26	2.98E-08		26	5.92E-09		26	2.35E-09		
27	2.76E-07		27	1.98E-08		27	1.88E-09				
28	9.60E-08		28	1.39E-08						
29	6.62E-08		29	7.24E-09						
30	2.13E-08		30	3.11E-09						
31	6.70E-09								
32	2.69E-09								
33	2.07E-09								