p	cond
5	36.88702884
10	23.14467769
15	25.54616934
20	20.67108806
25	23.41670919
30	21.4853742
35	23.24161265
40	20.96376731
45	22.51057045
50	21.43200628
55	22.60990971
60	21.1163505
65	22.18719915
70	21.43439315
75	22.3106261
80	21.20326709